,SANGER_SAMPLE_ID,SUPPLIER_SAMPLE_NAME,PLATE,COMMON_NAME,CELL_NAME,AGE,SEX
1,5317STDY7600252,L_38+_A1,Plate - Sample1,liver 34+38+ A1,X5317STDY7600252,19 pcw,male
2,5317STDY7600253,L_38+_A2,Plate - Sample1,liver 34+38+ A2,X5317STDY7600253,19 pcw,male
3,5317STDY7600254,L_38+_A3,Plate - Sample1,liver 34+38+ A3,X5317STDY7600254,19 pcw,male
4,5317STDY7600255,L_38+_A4,Plate - Sample1,liver 34+38+ A4,X5317STDY7600255,19 pcw,male
5,5317STDY7600256,L_38+_A5,Plate - Sample1,liver 34+38+ A5,X5317STDY7600256,19 pcw,male
6,5317STDY7600257,L_38+_A6,Plate - Sample1,liver 34+38+ A6,X5317STDY7600257,19 pcw,male
7,5317STDY7600258,L_38+_A7,Plate - Sample1,liver 34+38+ A7,X5317STDY7600258,19 pcw,male
8,5317STDY7600259,L_38+_A8,Plate - Sample1,liver 34+38+ A8,X5317STDY7600259,19 pcw,male
9,5317STDY7600260,L_38+_A9,Plate - Sample1,liver 34+38+ A9,X5317STDY7600260,19 pcw,male
10,5317STDY7600261,L_38+_A10,Plate - Sample1,liver 34+38+ A10,X5317STDY7600261,19 pcw,male
11,5317STDY7600262,L_38+_A11,Plate - Sample1,liver 34+38+ A11,X5317STDY7600262,19 pcw,male
12,5317STDY7600263,L_38+_A12,Plate - Sample1,liver 34+38+ A12,X5317STDY7600263,19 pcw,male
13,5317STDY7600264,L_38+_B1,Plate - Sample1,liver 34+38+ B1,X5317STDY7600264,19 pcw,male
14,5317STDY7600265,L_38+_B2,Plate - Sample1,liver 34+38+ B2,X5317STDY7600265,19 pcw,male
15,5317STDY7600266,L_38+_B3,Plate - Sample1,liver 34+38+ B3,X5317STDY7600266,19 pcw,male
16,5317STDY7600267,L_38+_B4,Plate - Sample1,liver 34+38+ B4,X5317STDY7600267,19 pcw,male
17,5317STDY7600268,L_38+_B5,Plate - Sample1,liver 34+38+ B5,X5317STDY7600268,19 pcw,male
18,5317STDY7600269,L_38+_B6,Plate - Sample1,liver 34+38+ B6,X5317STDY7600269,19 pcw,male
19,5317STDY7600270,L_38+_B7,Plate - Sample1,liver 34+38+ B7,X5317STDY7600270,19 pcw,male
20,5317STDY7600271,L_38+_B8,Plate - Sample1,liver 34+38+ B8,X5317STDY7600271,19 pcw,male
21,5317STDY7600272,L_38+_B9,Plate - Sample1,liver 34+38+ B9,X5317STDY7600272,19 pcw,male
22,5317STDY7600273,L_38+_B10,Plate - Sample1,liver 34+38+ B10,X5317STDY7600273,19 pcw,male
23,5317STDY7600274,L_38+_B11,Plate - Sample1,liver 34+38+ B11,X5317STDY7600274,19 pcw,male
24,5317STDY7600275,L_38+_B12,Plate - Sample1,liver 34+38+ B12,X5317STDY7600275,19 pcw,male
25,5317STDY7600276,L_38+_C1,Plate - Sample1,liver 34+38+ C1,X5317STDY7600276,19 pcw,male
26,5317STDY7600277,L_38+_C2,Plate - Sample1,liver 34+38+ C2,X5317STDY7600277,19 pcw,male
27,5317STDY7600278,L_38+_C3,Plate - Sample1,liver 34+38+ C3,X5317STDY7600278,19 pcw,male
28,5317STDY7600279,L_38+_C4,Plate - Sample1,liver 34+38+ C4,X5317STDY7600279,19 pcw,male
29,5317STDY7600280,L_38+_C5,Plate - Sample1,liver 34+38+ C5,X5317STDY7600280,19 pcw,male
30,5317STDY7600281,L_38+_C6,Plate - Sample1,liver 34+38+ C6,X5317STDY7600281,19 pcw,male
31,5317STDY7600282,L_38+_C7,Plate - Sample1,liver 34+38+ C7,X5317STDY7600282,19 pcw,male
32,5317STDY7600283,L_38+_C8,Plate - Sample1,liver 34+38+ C8,X5317STDY7600283,19 pcw,male
33,5317STDY7600284,L_38+_C9,Plate - Sample1,liver 34+38+ C9,X5317STDY7600284,19 pcw,male
34,5317STDY7600285,L_38+_C10,Plate - Sample1,liver 34+38+ C10,X5317STDY7600285,19 pcw,male
35,5317STDY7600286,L_38+_C11,Plate - Sample1,liver 34+38+ C11,X5317STDY7600286,19 pcw,male
36,5317STDY7600287,L_38+_C12,Plate - Sample1,liver 34+38+ C12,X5317STDY7600287,19 pcw,male
37,5317STDY7600288,L_38+_D1,Plate - Sample1,liver 34+38+ D1,X5317STDY7600288,19 pcw,male
38,5317STDY7600289,L_38+_D2,Plate - Sample1,liver 34+38+ D2,X5317STDY7600289,19 pcw,male
39,5317STDY7600290,L_38+_D3,Plate - Sample1,liver 34+38+ D3,X5317STDY7600290,19 pcw,male
40,5317STDY7600291,L_38+_D4,Plate - Sample1,liver 34+38+ D4,X5317STDY7600291,19 pcw,male
41,5317STDY7600292,L_38+_D5,Plate - Sample1,liver 34+38+ D5,X5317STDY7600292,19 pcw,male
42,5317STDY7600293,L_38+_D6,Plate - Sample1,liver 34+38+ D6,X5317STDY7600293,19 pcw,male
43,5317STDY7600294,L_38+_D7,Plate - Sample1,liver 34+38+ D7,X5317STDY7600294,19 pcw,male
44,5317STDY7600295,L_38+_D8,Plate - Sample1,liver 34+38+ D8,X5317STDY7600295,19 pcw,male
45,5317STDY7600296,L_38+_D9,Plate - Sample1,liver 34+38+ D9,X5317STDY7600296,19 pcw,male
46,5317STDY7600297,L_38+_D10,Plate - Sample1,liver 34+38+ D10,X5317STDY7600297,19 pcw,male
47,5317STDY7600298,L_38+_D11,Plate - Sample1,liver 34+38+ D11,X5317STDY7600298,19 pcw,male
48,5317STDY7600299,L_38+_D12,Plate - Sample1,liver 34+38+ D12,X5317STDY7600299,19 pcw,male
49,5317STDY7600300,L_38+_E1,Plate - Sample1,liver 34+38+ E1,X5317STDY7600300,19 pcw,male
50,5317STDY7600301,L_38+_E2,Plate - Sample1,liver 34+38+ E2,X5317STDY7600301,19 pcw,male
51,5317STDY7600302,L_38+_E3,Plate - Sample1,liver 34+38+ E3,X5317STDY7600302,19 pcw,male
52,5317STDY7600303,L_38+_E4,Plate - Sample1,liver 34+38+ E4,X5317STDY7600303,19 pcw,male
53,5317STDY7600304,L_38+_E5,Plate - Sample1,liver 34+38+ E5,X5317STDY7600304,19 pcw,male
54,5317STDY7600305,L_38+_E6,Plate - Sample1,liver 34+38+ E6,X5317STDY7600305,19 pcw,male
55,5317STDY7600306,L_38+_E7,Plate - Sample1,liver 34+38+ E7,X5317STDY7600306,19 pcw,male
56,5317STDY7600307,L_38+_E8,Plate - Sample1,liver 34+38+ E8,X5317STDY7600307,19 pcw,male
57,5317STDY7600308,L_38+_E9,Plate - Sample1,liver 34+38+ E9,X5317STDY7600308,19 pcw,male
58,5317STDY7600309,L_38+_E10,Plate - Sample1,liver 34+38+ E10,X5317STDY7600309,19 pcw,male
59,5317STDY7600310,L_38+_E11,Plate - Sample1,liver 34+38+ E11,X5317STDY7600310,19 pcw,male
60,5317STDY7600311,L_38+_E12,Plate - Sample1,liver 34+38+ E12,X5317STDY7600311,19 pcw,male
61,5317STDY7600312,L_38+_F1,Plate - Sample1,liver 34+38+ F1,X5317STDY7600312,19 pcw,male
62,5317STDY7600313,L_38+_F2,Plate - Sample1,liver 34+38+ F2,X5317STDY7600313,19 pcw,male
63,5317STDY7600314,L_38+_F3,Plate - Sample1,liver 34+38+ F3,X5317STDY7600314,19 pcw,male
64,5317STDY7600315,L_38+_F4,Plate - Sample1,liver 34+38+ F4,X5317STDY7600315,19 pcw,male
65,5317STDY7600316,L_38+_F5,Plate - Sample1,liver 34+38+ F5,X5317STDY7600316,19 pcw,male
66,5317STDY7600317,L_38+_F6,Plate - Sample1,liver 34+38+ F6,X5317STDY7600317,19 pcw,male
67,5317STDY7600318,L_38+_F7,Plate - Sample1,liver 34+38+ F7,X5317STDY7600318,19 pcw,male
68,5317STDY7600319,L_38+_F8,Plate - Sample1,liver 34+38+ F8,X5317STDY7600319,19 pcw,male
69,5317STDY7600320,L_38+_F9,Plate - Sample1,liver 34+38+ F9,X5317STDY7600320,19 pcw,male
70,5317STDY7600321,L_38+_F10,Plate - Sample1,liver 34+38+ F10,X5317STDY7600321,19 pcw,male
71,5317STDY7600322,L_38+_F11,Plate - Sample1,liver 34+38+ F11,X5317STDY7600322,19 pcw,male
72,5317STDY7600323,L_38+_F12,Plate - Sample1,liver 34+38+ F12,X5317STDY7600323,19 pcw,male
73,5317STDY7600324,L_38+_G1,Plate - Sample1,liver 34+38+ G1,X5317STDY7600324,19 pcw,male
74,5317STDY7600325,L_38+_G2,Plate - Sample1,liver 34+38+ G2,X5317STDY7600325,19 pcw,male
75,5317STDY7600326,L_38+_G3,Plate - Sample1,liver 34+38+ G3,X5317STDY7600326,19 pcw,male
76,5317STDY7600327,L_38+_G4,Plate - Sample1,liver 34+38+ G4,X5317STDY7600327,19 pcw,male
77,5317STDY7600328,L_38+_G5,Plate - Sample1,liver 34+38+ G5,X5317STDY7600328,19 pcw,male
78,5317STDY7600329,L_38+_G6,Plate - Sample1,liver 34+38+ G6,X5317STDY7600329,19 pcw,male
79,5317STDY7600330,L_38+_G7,Plate - Sample1,liver 34+38+ G7,X5317STDY7600330,19 pcw,male
80,5317STDY7600331,L_38+_G8,Plate - Sample1,liver 34+38+ G8,X5317STDY7600331,19 pcw,male
81,5317STDY7600332,L_38+_G9,Plate - Sample1,liver 34+38+ G9,X5317STDY7600332,19 pcw,male
82,5317STDY7600333,L_38+_G10,Plate - Sample1,liver 34+38+ G10,X5317STDY7600333,19 pcw,male
83,5317STDY7600334,L_38+_G11,Plate - Sample1,liver 34+38+ G11,X5317STDY7600334,19 pcw,male
84,5317STDY7600335,L_38+_G12,Plate - Sample1,liver 34+38+ G12,X5317STDY7600335,19 pcw,male
85,5317STDY7600336,L_38+_H1,Plate - Sample1,liver 34+38+ H1,X5317STDY7600336,19 pcw,male
86,5317STDY7600337,L_38+_H2,Plate - Sample1,liver 34+38+ H2,X5317STDY7600337,19 pcw,male
87,5317STDY7600338,L_38+_H3,Plate - Sample1,liver 34+38+ H3,X5317STDY7600338,19 pcw,male
88,5317STDY7600339,L_38+_H4,Plate - Sample1,liver 34+38+ H4,X5317STDY7600339,19 pcw,male
89,5317STDY7600340,L_38+_H5,Plate - Sample1,liver 34+38+ H5,X5317STDY7600340,19 pcw,male
90,5317STDY7600341,L_38+_H6,Plate - Sample1,liver 34+38+ H6,X5317STDY7600341,19 pcw,male
91,5317STDY7600342,L_38+_H7,Plate - Sample1,liver 34+38+ H7,X5317STDY7600342,19 pcw,male
92,5317STDY7600343,L_38+_H8,Plate - Sample1,liver 34+38+ H8,X5317STDY7600343,19 pcw,male
93,5317STDY7600344,L_38+_H9,Plate - Sample1,liver 34+38+ H9,X5317STDY7600344,19 pcw,male
94,5317STDY7600345,L_38+_H10,Plate - Sample1,liver 34+38+ H10,X5317STDY7600345,19 pcw,male
95,5317STDY7600346,L_38+_H11,Plate - Sample1,liver 34+38+ H11,X5317STDY7600346,19 pcw,male
96,5317STDY7600347,L_38+_H12,Plate - Sample1,liver 34+38+ H12,X5317STDY7600347,19 pcw,male
97,5317STDY7600348,H_38+_A1,Plate - Sample1,hip 34+38+ A1,X5317STDY7600348,19 pcw,male
98,5317STDY7600349,H_38+_A2,Plate - Sample1,hip 34+38+ A2,X5317STDY7600349,19 pcw,male
99,5317STDY7600350,H_38+_A3,Plate - Sample1,hip 34+38+ A3,X5317STDY7600350,19 pcw,male
100,5317STDY7600351,H_38+_A4,Plate - Sample1,hip 34+38+ A4,X5317STDY7600351,19 pcw,male
101,5317STDY7600352,H_38+_A5,Plate - Sample1,hip 34+38+ A5,X5317STDY7600352,19 pcw,male
102,5317STDY7600353,H_38+_A6,Plate - Sample1,hip 34+38+ A6,X5317STDY7600353,19 pcw,male
103,5317STDY7600354,H_38+_A7,Plate - Sample1,hip 34+38+ A7,X5317STDY7600354,19 pcw,male
104,5317STDY7600355,H_38+_A8,Plate - Sample1,hip 34+38+ A8,X5317STDY7600355,19 pcw,male
105,5317STDY7600356,H_38+_A9,Plate - Sample1,hip 34+38+ A9,X5317STDY7600356,19 pcw,male
106,5317STDY7600357,H_38+_A10,Plate - Sample1,hip 34+38+ A10,X5317STDY7600357,19 pcw,male
107,5317STDY7600358,H_38+_A11,Plate - Sample1,hip 34+38+ A11,X5317STDY7600358,19 pcw,male
108,5317STDY7600359,H_38+_A12,Plate - Sample1,hip 34+38+ A12,X5317STDY7600359,19 pcw,male
109,5317STDY7600360,H_38+_B1,Plate - Sample1,hip 34+38+ B1,X5317STDY7600360,19 pcw,male
110,5317STDY7600361,H_38+_B2,Plate - Sample1,hip 34+38+ B2,X5317STDY7600361,19 pcw,male
111,5317STDY7600362,H_38+_B3,Plate - Sample1,hip 34+38+ B3,X5317STDY7600362,19 pcw,male
112,5317STDY7600363,H_38+_B4,Plate - Sample1,hip 34+38+ B4,X5317STDY7600363,19 pcw,male
113,5317STDY7600364,H_38+_B5,Plate - Sample1,hip 34+38+ B5,X5317STDY7600364,19 pcw,male
114,5317STDY7600365,H_38+_B6,Plate - Sample1,hip 34+38+ B6,X5317STDY7600365,19 pcw,male
115,5317STDY7600366,H_38+_B7,Plate - Sample1,hip 34+38+ B7,X5317STDY7600366,19 pcw,male
116,5317STDY7600367,H_38+_B8,Plate - Sample1,hip 34+38+ B8,X5317STDY7600367,19 pcw,male
117,5317STDY7600368,H_38+_B9,Plate - Sample1,hip 34+38+ B9,X5317STDY7600368,19 pcw,male
118,5317STDY7600369,H_38+_B10,Plate - Sample1,hip 34+38+ B10,X5317STDY7600369,19 pcw,male
119,5317STDY7600370,H_38+_B11,Plate - Sample1,hip 34+38+ B11,X5317STDY7600370,19 pcw,male
120,5317STDY7600371,H_38+_B12,Plate - Sample1,hip 34+38+ B12,X5317STDY7600371,19 pcw,male
121,5317STDY7600372,H_38+_C1,Plate - Sample1,hip 34+38+ C1,X5317STDY7600372,19 pcw,male
122,5317STDY7600373,H_38+_C2,Plate - Sample1,hip 34+38+ C2,X5317STDY7600373,19 pcw,male
123,5317STDY7600374,H_38+_C3,Plate - Sample1,hip 34+38+ C3,X5317STDY7600374,19 pcw,male
124,5317STDY7600375,H_38+_C4,Plate - Sample1,hip 34+38+ C4,X5317STDY7600375,19 pcw,male
125,5317STDY7600376,H_38+_C5,Plate - Sample1,hip 34+38+ C5,X5317STDY7600376,19 pcw,male
126,5317STDY7600377,H_38+_C6,Plate - Sample1,hip 34+38+ C6,X5317STDY7600377,19 pcw,male
127,5317STDY7600378,H_38+_C7,Plate - Sample1,hip 34+38+ C7,X5317STDY7600378,19 pcw,male
128,5317STDY7600379,H_38+_C8,Plate - Sample1,hip 34+38+ C8,X5317STDY7600379,19 pcw,male
129,5317STDY7600380,H_38+_C9,Plate - Sample1,hip 34+38+ C9,X5317STDY7600380,19 pcw,male
130,5317STDY7600381,H_38+_C10,Plate - Sample1,hip 34+38+ C10,X5317STDY7600381,19 pcw,male
131,5317STDY7600382,H_38+_C11,Plate - Sample1,hip 34+38+ C11,X5317STDY7600382,19 pcw,male
132,5317STDY7600383,H_38+_C12,Plate - Sample1,hip 34+38+ C12,X5317STDY7600383,19 pcw,male
133,5317STDY7600384,H_38+_D1,Plate - Sample1,hip 34+38+ D1,X5317STDY7600384,19 pcw,male
134,5317STDY7600385,H_38+_D2,Plate - Sample1,hip 34+38+ D2,X5317STDY7600385,19 pcw,male
135,5317STDY7600386,H_38+_D3,Plate - Sample1,hip 34+38+ D3,X5317STDY7600386,19 pcw,male
136,5317STDY7600387,H_38+_D4,Plate - Sample1,hip 34+38+ D4,X5317STDY7600387,19 pcw,male
137,5317STDY7600388,H_38+_D5,Plate - Sample1,hip 34+38+ D5,X5317STDY7600388,19 pcw,male
138,5317STDY7600389,H_38+_D6,Plate - Sample1,hip 34+38+ D6,X5317STDY7600389,19 pcw,male
139,5317STDY7600390,H_38+_D7,Plate - Sample1,hip 34+38+ D7,X5317STDY7600390,19 pcw,male
140,5317STDY7600391,H_38+_D8,Plate - Sample1,hip 34+38+ D8,X5317STDY7600391,19 pcw,male
141,5317STDY7600392,H_38+_D9,Plate - Sample1,hip 34+38+ D9,X5317STDY7600392,19 pcw,male
142,5317STDY7600393,H_38+_D10,Plate - Sample1,hip 34+38+ D10,X5317STDY7600393,19 pcw,male
143,5317STDY7600394,H_38+_D11,Plate - Sample1,hip 34+38+ D11,X5317STDY7600394,19 pcw,male
144,5317STDY7600395,H_38+_D12,Plate - Sample1,hip 34+38+ D12,X5317STDY7600395,19 pcw,male
145,5317STDY7600396,H_38+_E1,Plate - Sample1,hip 34+38+ E1,X5317STDY7600396,19 pcw,male
146,5317STDY7600397,H_38+_E2,Plate - Sample1,hip 34+38+ E2,X5317STDY7600397,19 pcw,male
147,5317STDY7600398,H_38+_E3,Plate - Sample1,hip 34+38+ E3,X5317STDY7600398,19 pcw,male
148,5317STDY7600399,H_38+_E4,Plate - Sample1,hip 34+38+ E4,X5317STDY7600399,19 pcw,male
149,5317STDY7600400,H_38+_E5,Plate - Sample1,hip 34+38+ E5,X5317STDY7600400,19 pcw,male
150,5317STDY7600401,H_38+_E6,Plate - Sample1,hip 34+38+ E6,X5317STDY7600401,19 pcw,male
151,5317STDY7600402,H_38+_E7,Plate - Sample1,hip 34+38+ E7,X5317STDY7600402,19 pcw,male
152,5317STDY7600403,H_38+_E8,Plate - Sample1,hip 34+38+ E8,X5317STDY7600403,19 pcw,male
153,5317STDY7600404,H_38+_E9,Plate - Sample1,hip 34+38+ E9,X5317STDY7600404,19 pcw,male
154,5317STDY7600405,H_38+_E10,Plate - Sample1,hip 34+38+ E10,X5317STDY7600405,19 pcw,male
155,5317STDY7600406,H_38+_E11,Plate - Sample1,hip 34+38+ E11,X5317STDY7600406,19 pcw,male
156,5317STDY7600407,H_38+_E12,Plate - Sample1,hip 34+38+ E12,X5317STDY7600407,19 pcw,male
157,5317STDY7600408,H_38+_F1,Plate - Sample1,hip 34+38+ F1,X5317STDY7600408,19 pcw,male
158,5317STDY7600409,H_38+_F2,Plate - Sample1,hip 34+38+ F2,X5317STDY7600409,19 pcw,male
159,5317STDY7600410,H_38+_F3,Plate - Sample1,hip 34+38+ F3,X5317STDY7600410,19 pcw,male
160,5317STDY7600411,H_38+_F4,Plate - Sample1,hip 34+38+ F4,X5317STDY7600411,19 pcw,male
161,5317STDY7600412,H_38+_F5,Plate - Sample1,hip 34+38+ F5,X5317STDY7600412,19 pcw,male
162,5317STDY7600413,H_38+_F6,Plate - Sample1,hip 34+38+ F6,X5317STDY7600413,19 pcw,male
163,5317STDY7600414,H_38+_F7,Plate - Sample1,hip 34+38+ F7,X5317STDY7600414,19 pcw,male
164,5317STDY7600415,H_38+_F8,Plate - Sample1,hip 34+38+ F8,X5317STDY7600415,19 pcw,male
165,5317STDY7600416,H_38+_F9,Plate - Sample1,hip 34+38+ F9,X5317STDY7600416,19 pcw,male
166,5317STDY7600417,H_38+_F10,Plate - Sample1,hip 34+38+ F10,X5317STDY7600417,19 pcw,male
167,5317STDY7600418,H_38+_F11,Plate - Sample1,hip 34+38+ F11,X5317STDY7600418,19 pcw,male
168,5317STDY7600419,H_38+_F12,Plate - Sample1,hip 34+38+ F12,X5317STDY7600419,19 pcw,male
169,5317STDY7600420,H_38+_G1,Plate - Sample1,hip 34+38+ G1,X5317STDY7600420,19 pcw,male
170,5317STDY7600421,H_38+_G2,Plate - Sample1,hip 34+38+ G2,X5317STDY7600421,19 pcw,male
171,5317STDY7600422,H_38+_G3,Plate - Sample1,hip 34+38+ G3,X5317STDY7600422,19 pcw,male
172,5317STDY7600423,H_38+_G4,Plate - Sample1,hip 34+38+ G4,X5317STDY7600423,19 pcw,male
173,5317STDY7600424,H_38+_G5,Plate - Sample1,hip 34+38+ G5,X5317STDY7600424,19 pcw,male
174,5317STDY7600425,H_38+_G6,Plate - Sample1,hip 34+38+ G6,X5317STDY7600425,19 pcw,male
175,5317STDY7600426,H_38+_G7,Plate - Sample1,hip 34+38+ G7,X5317STDY7600426,19 pcw,male
176,5317STDY7600427,H_38+_G8,Plate - Sample1,hip 34+38+ G8,X5317STDY7600427,19 pcw,male
177,5317STDY7600428,H_38+_G9,Plate - Sample1,hip 34+38+ G9,X5317STDY7600428,19 pcw,male
178,5317STDY7600429,H_38+_G10,Plate - Sample1,hip 34+38+ G10,X5317STDY7600429,19 pcw,male
179,5317STDY7600430,H_38+_G11,Plate - Sample1,hip 34+38+ G11,X5317STDY7600430,19 pcw,male
180,5317STDY7600431,H_38+_G12,Plate - Sample1,hip 34+38+ G12,X5317STDY7600431,19 pcw,male
181,5317STDY7600432,H_38+_H1,Plate - Sample1,hip 34+38+ H1,X5317STDY7600432,19 pcw,male
182,5317STDY7600433,H_38+_H2,Plate - Sample1,hip 34+38+ H2,X5317STDY7600433,19 pcw,male
183,5317STDY7600434,H_38+_H3,Plate - Sample1,hip 34+38+ H3,X5317STDY7600434,19 pcw,male
184,5317STDY7600435,H_38+_H4,Plate - Sample1,hip 34+38+ H4,X5317STDY7600435,19 pcw,male
185,5317STDY7600436,H_38+_H5,Plate - Sample1,hip 34+38+ H5,X5317STDY7600436,19 pcw,male
186,5317STDY7600437,H_38+_H6,Plate - Sample1,hip 34+38+ H6,X5317STDY7600437,19 pcw,male
187,5317STDY7600438,H_38+_H7,Plate - Sample1,hip 34+38+ H7,X5317STDY7600438,19 pcw,male
188,5317STDY7600439,H_38+_H8,Plate - Sample1,hip 34+38+ H8,X5317STDY7600439,19 pcw,male
189,5317STDY7600440,H_38+_H9,Plate - Sample1,hip 34+38+ H9,X5317STDY7600440,19 pcw,male
190,5317STDY7600441,H_38+_H10,Plate - Sample1,hip 34+38+ H10,X5317STDY7600441,19 pcw,male
191,5317STDY7600442,H_38+_H11,Plate - Sample1,hip 34+38+ H11,X5317STDY7600442,19 pcw,male
192,5317STDY7600443,H_38+_H12,Plate - Sample1,hip 34+38+ H12,X5317STDY7600443,19 pcw,male
193,5317STDY7600444,F_38+_A1,Plate - Sample1,femur 34+38+ A1,X5317STDY7600444,19 pcw,male
194,5317STDY7600445,F_38+_A2,Plate - Sample1,femur 34+38+ A2,X5317STDY7600445,19 pcw,male
195,5317STDY7600446,F_38+_A3,Plate - Sample1,femur 34+38+ A3,X5317STDY7600446,19 pcw,male
196,5317STDY7600447,F_38+_A4,Plate - Sample1,femur 34+38+ A4,X5317STDY7600447,19 pcw,male
197,5317STDY7600448,F_38+_A5,Plate - Sample1,femur 34+38+ A5,X5317STDY7600448,19 pcw,male
198,5317STDY7600449,F_38+_A6,Plate - Sample1,femur 34+38+ A6,X5317STDY7600449,19 pcw,male
199,5317STDY7600450,F_38+_A7,Plate - Sample1,femur 34+38+ A7,X5317STDY7600450,19 pcw,male
200,5317STDY7600451,F_38+_A8,Plate - Sample1,femur 34+38+ A8,X5317STDY7600451,19 pcw,male
201,5317STDY7600452,F_38+_A9,Plate - Sample1,femur 34+38+ A9,X5317STDY7600452,19 pcw,male
202,5317STDY7600453,F_38+_A10,Plate - Sample1,femur 34+38+ A10,X5317STDY7600453,19 pcw,male
203,5317STDY7600454,F_38+_A11,Plate - Sample1,femur 34+38+ A11,X5317STDY7600454,19 pcw,male
204,5317STDY7600455,F_38+_A12,Plate - Sample1,femur 34+38+ A12,X5317STDY7600455,19 pcw,male
205,5317STDY7600456,F_38+_B1,Plate - Sample1,femur 34+38+ B1,X5317STDY7600456,19 pcw,male
206,5317STDY7600457,F_38+_B2,Plate - Sample1,femur 34+38+ B2,X5317STDY7600457,19 pcw,male
207,5317STDY7600458,F_38+_B3,Plate - Sample1,femur 34+38+ B3,X5317STDY7600458,19 pcw,male
208,5317STDY7600459,F_38+_B4,Plate - Sample1,femur 34+38+ B4,X5317STDY7600459,19 pcw,male
209,5317STDY7600460,F_38+_B5,Plate - Sample1,femur 34+38+ B5,X5317STDY7600460,19 pcw,male
210,5317STDY7600461,F_38+_B6,Plate - Sample1,femur 34+38+ B6,X5317STDY7600461,19 pcw,male
211,5317STDY7600462,F_38+_B7,Plate - Sample1,femur 34+38+ B7,X5317STDY7600462,19 pcw,male
212,5317STDY7600463,F_38+_B8,Plate - Sample1,femur 34+38+ B8,X5317STDY7600463,19 pcw,male
213,5317STDY7600464,F_38+_B9,Plate - Sample1,femur 34+38+ B9,X5317STDY7600464,19 pcw,male
214,5317STDY7600465,F_38+_B10,Plate - Sample1,femur 34+38+ B10,X5317STDY7600465,19 pcw,male
215,5317STDY7600466,F_38+_B11,Plate - Sample1,femur 34+38+ B11,X5317STDY7600466,19 pcw,male
216,5317STDY7600467,F_38+_B12,Plate - Sample1,femur 34+38+ B12,X5317STDY7600467,19 pcw,male
217,5317STDY7600468,F_38+_C1,Plate - Sample1,femur 34+38+ C1,X5317STDY7600468,19 pcw,male
218,5317STDY7600469,F_38+_C2,Plate - Sample1,femur 34+38+ C2,X5317STDY7600469,19 pcw,male
219,5317STDY7600470,F_38+_C3,Plate - Sample1,femur 34+38+ C3,X5317STDY7600470,19 pcw,male
220,5317STDY7600471,F_38+_C4,Plate - Sample1,femur 34+38+ C4,X5317STDY7600471,19 pcw,male
221,5317STDY7600472,F_38+_C5,Plate - Sample1,femur 34+38+ C5,X5317STDY7600472,19 pcw,male
222,5317STDY7600473,F_38+_C6,Plate - Sample1,femur 34+38+ C6,X5317STDY7600473,19 pcw,male
223,5317STDY7600474,F_38+_C7,Plate - Sample1,femur 34+38+ C7,X5317STDY7600474,19 pcw,male
224,5317STDY7600475,F_38+_C8,Plate - Sample1,femur 34+38+ C8,X5317STDY7600475,19 pcw,male
225,5317STDY7600476,F_38+_C9,Plate - Sample1,femur 34+38+ C9,X5317STDY7600476,19 pcw,male
226,5317STDY7600477,F_38+_C10,Plate - Sample1,femur 34+38+ C10,X5317STDY7600477,19 pcw,male
227,5317STDY7600478,F_38+_C11,Plate - Sample1,femur 34+38+ C11,X5317STDY7600478,19 pcw,male
228,5317STDY7600479,F_38+_C12,Plate - Sample1,femur 34+38+ C12,X5317STDY7600479,19 pcw,male
229,5317STDY7600480,F_38+_D1,Plate - Sample1,femur 34+38+ D1,X5317STDY7600480,19 pcw,male
230,5317STDY7600481,F_38+_D2,Plate - Sample1,femur 34+38+ D2,X5317STDY7600481,19 pcw,male
231,5317STDY7600482,F_38+_D3,Plate - Sample1,femur 34+38+ D3,X5317STDY7600482,19 pcw,male
232,5317STDY7600483,F_38+_D4,Plate - Sample1,femur 34+38+ D4,X5317STDY7600483,19 pcw,male
233,5317STDY7600484,F_38+_D5,Plate - Sample1,femur 34+38+ D5,X5317STDY7600484,19 pcw,male
234,5317STDY7600485,F_38+_D6,Plate - Sample1,femur 34+38+ D6,X5317STDY7600485,19 pcw,male
235,5317STDY7600486,F_38+_D7,Plate - Sample1,femur 34+38+ D7,X5317STDY7600486,19 pcw,male
236,5317STDY7600487,F_38+_D8,Plate - Sample1,femur 34+38+ D8,X5317STDY7600487,19 pcw,male
237,5317STDY7600488,F_38+_D9,Plate - Sample1,femur 34+38+ D9,X5317STDY7600488,19 pcw,male
238,5317STDY7600489,F_38+_D10,Plate - Sample1,femur 34+38+ D10,X5317STDY7600489,19 pcw,male
239,5317STDY7600490,F_38+_D11,Plate - Sample1,femur 34+38+ D11,X5317STDY7600490,19 pcw,male
240,5317STDY7600491,F_38+_D12,Plate - Sample1,femur 34+38+ D12,X5317STDY7600491,19 pcw,male
241,5317STDY7600492,F_38+_E1,Plate - Sample1,femur 34+38+ E1,X5317STDY7600492,19 pcw,male
242,5317STDY7600493,F_38+_E2,Plate - Sample1,femur 34+38+ E2,X5317STDY7600493,19 pcw,male
243,5317STDY7600494,F_38+_E3,Plate - Sample1,femur 34+38+ E3,X5317STDY7600494,19 pcw,male
244,5317STDY7600495,F_38+_E4,Plate - Sample1,femur 34+38+ E4,X5317STDY7600495,19 pcw,male
245,5317STDY7600496,F_38+_E5,Plate - Sample1,femur 34+38+ E5,X5317STDY7600496,19 pcw,male
246,5317STDY7600497,F_38+_E6,Plate - Sample1,femur 34+38+ E6,X5317STDY7600497,19 pcw,male
247,5317STDY7600498,F_38+_E7,Plate - Sample1,femur 34+38+ E7,X5317STDY7600498,19 pcw,male
248,5317STDY7600499,F_38+_E8,Plate - Sample1,femur 34+38+ E8,X5317STDY7600499,19 pcw,male
249,5317STDY7600500,F_38+_E9,Plate - Sample1,femur 34+38+ E9,X5317STDY7600500,19 pcw,male
250,5317STDY7600501,F_38+_E10,Plate - Sample1,femur 34+38+ E10,X5317STDY7600501,19 pcw,male
251,5317STDY7600502,F_38+_E11,Plate - Sample1,femur 34+38+ E11,X5317STDY7600502,19 pcw,male
252,5317STDY7600503,F_38+_E12,Plate - Sample1,femur 34+38+ E12,X5317STDY7600503,19 pcw,male
253,5317STDY7600504,F_38+_F1,Plate - Sample1,femur 34+38+ F1,X5317STDY7600504,19 pcw,male
254,5317STDY7600505,F_38+_F2,Plate - Sample1,femur 34+38+ F2,X5317STDY7600505,19 pcw,male
255,5317STDY7600506,F_38+_F3,Plate - Sample1,femur 34+38+ F3,X5317STDY7600506,19 pcw,male
256,5317STDY7600507,F_38+_F4,Plate - Sample1,femur 34+38+ F4,X5317STDY7600507,19 pcw,male
257,5317STDY7600508,F_38+_F5,Plate - Sample1,femur 34+38+ F5,X5317STDY7600508,19 pcw,male
258,5317STDY7600509,F_38+_F6,Plate - Sample1,femur 34+38+ F6,X5317STDY7600509,19 pcw,male
259,5317STDY7600510,F_38+_F7,Plate - Sample1,femur 34+38+ F7,X5317STDY7600510,19 pcw,male
260,5317STDY7600511,F_38+_F8,Plate - Sample1,femur 34+38+ F8,X5317STDY7600511,19 pcw,male
261,5317STDY7600512,F_38+_F9,Plate - Sample1,femur 34+38+ F9,X5317STDY7600512,19 pcw,male
262,5317STDY7600513,F_38+_F10,Plate - Sample1,femur 34+38+ F10,X5317STDY7600513,19 pcw,male
263,5317STDY7600514,F_38+_F11,Plate - Sample1,femur 34+38+ F11,X5317STDY7600514,19 pcw,male
264,5317STDY7600515,F_38+_F12,Plate - Sample1,femur 34+38+ F12,X5317STDY7600515,19 pcw,male
265,5317STDY7600516,F_38+_G1,Plate - Sample1,femur 34+38+ G1,X5317STDY7600516,19 pcw,male
266,5317STDY7600517,F_38+_G2,Plate - Sample1,femur 34+38+ G2,X5317STDY7600517,19 pcw,male
267,5317STDY7600518,F_38+_G3,Plate - Sample1,femur 34+38+ G3,X5317STDY7600518,19 pcw,male
268,5317STDY7600519,F_38+_G4,Plate - Sample1,femur 34+38+ G4,X5317STDY7600519,19 pcw,male
269,5317STDY7600520,F_38+_G5,Plate - Sample1,femur 34+38+ G5,X5317STDY7600520,19 pcw,male
270,5317STDY7600521,F_38+_G6,Plate - Sample1,femur 34+38+ G6,X5317STDY7600521,19 pcw,male
271,5317STDY7600522,F_38+_G7,Plate - Sample1,femur 34+38+ G7,X5317STDY7600522,19 pcw,male
272,5317STDY7600523,F_38+_G8,Plate - Sample1,femur 34+38+ G8,X5317STDY7600523,19 pcw,male
273,5317STDY7600524,F_38+_G9,Plate - Sample1,femur 34+38+ G9,X5317STDY7600524,19 pcw,male
274,5317STDY7600525,F_38+_G10,Plate - Sample1,femur 34+38+ G10,X5317STDY7600525,19 pcw,male
275,5317STDY7600526,F_38+_G11,Plate - Sample1,femur 34+38+ G11,X5317STDY7600526,19 pcw,male
276,5317STDY7600527,F_38+_G12,Plate - Sample1,femur 34+38+ G12,X5317STDY7600527,19 pcw,male
277,5317STDY7600528,F_38+_H1,Plate - Sample1,femur 34+38+ H1,X5317STDY7600528,19 pcw,male
278,5317STDY7600529,F_38+_H2,Plate - Sample1,femur 34+38+ H2,X5317STDY7600529,19 pcw,male
279,5317STDY7600530,F_38+_H3,Plate - Sample1,femur 34+38+ H3,X5317STDY7600530,19 pcw,male
280,5317STDY7600531,F_38+_H4,Plate - Sample1,femur 34+38+ H4,X5317STDY7600531,19 pcw,male
281,5317STDY7600532,F_38+_H5,Plate - Sample1,femur 34+38+ H5,X5317STDY7600532,19 pcw,male
282,5317STDY7600533,F_38+_H6,Plate - Sample1,femur 34+38+ H6,X5317STDY7600533,19 pcw,male
283,5317STDY7600534,F_38+_H7,Plate - Sample1,femur 34+38+ H7,X5317STDY7600534,19 pcw,male
284,5317STDY7600535,F_38+_H8,Plate - Sample1,femur 34+38+ H8,X5317STDY7600535,19 pcw,male
285,5317STDY7600536,F_38+_H9,Plate - Sample1,femur 34+38+ H9,X5317STDY7600536,19 pcw,male
286,5317STDY7600537,F_38+_H10,Plate - Sample1,femur 34+38+ H10,X5317STDY7600537,19 pcw,male
287,5317STDY7600538,F_38+_H11,Plate - Sample1,femur 34+38+ H11,X5317STDY7600538,19 pcw,male
288,5317STDY7600539,F_38+_H12,Plate - Sample1,femur 34+38+ H12,X5317STDY7600539,19 pcw,male
289,5317STDY7600540,L_38-_A1,Plate - Sample1,liver 34+38-A1,X5317STDY7600540,19 pcw,male
290,5317STDY7600541,L_38-_A2,Plate - Sample1,liver 34+38-A2,X5317STDY7600541,19 pcw,male
291,5317STDY7600542,L_38-_A3,Plate - Sample1,liver 34+38-A3,X5317STDY7600542,19 pcw,male
292,5317STDY7600543,L_38-_A4,Plate - Sample1,liver 34+38-A4,X5317STDY7600543,19 pcw,male
293,5317STDY7600544,L_38-_A5,Plate - Sample1,liver 34+38-A5,X5317STDY7600544,19 pcw,male
294,5317STDY7600545,L_38-_A6,Plate - Sample1,liver 34+38-A6,X5317STDY7600545,19 pcw,male
295,5317STDY7600546,L_38-_A7,Plate - Sample1,liver 34+38-A7,X5317STDY7600546,19 pcw,male
296,5317STDY7600547,L_38-_A8,Plate - Sample1,liver 34+38-A8,X5317STDY7600547,19 pcw,male
297,5317STDY7600548,L_38-_A9,Plate - Sample1,liver 34+38-A9,X5317STDY7600548,19 pcw,male
298,5317STDY7600549,L_38-_A10,Plate - Sample1,liver 34+38-A10,X5317STDY7600549,19 pcw,male
299,5317STDY7600550,L_38-_A11,Plate - Sample1,liver 34+38-A11,X5317STDY7600550,19 pcw,male
300,5317STDY7600551,L_38-_A12,Plate - Sample1,liver 34+38-A12,X5317STDY7600551,19 pcw,male
301,5317STDY7600552,L_38-_B1,Plate - Sample1,liver 34+38-B1,X5317STDY7600552,19 pcw,male
302,5317STDY7600553,L_38-_B2,Plate - Sample1,liver 34+38-B2,X5317STDY7600553,19 pcw,male
303,5317STDY7600554,L_38-_B3,Plate - Sample1,liver 34+38-B3,X5317STDY7600554,19 pcw,male
304,5317STDY7600555,L_38-_B4,Plate - Sample1,liver 34+38-B4,X5317STDY7600555,19 pcw,male
305,5317STDY7600556,L_38-_B5,Plate - Sample1,liver 34+38-B5,X5317STDY7600556,19 pcw,male
306,5317STDY7600557,L_38-_B6,Plate - Sample1,liver 34+38-B6,X5317STDY7600557,19 pcw,male
307,5317STDY7600558,L_38-_B7,Plate - Sample1,liver 34+38-B7,X5317STDY7600558,19 pcw,male
308,5317STDY7600559,L_38-_B8,Plate - Sample1,liver 34+38-B8,X5317STDY7600559,19 pcw,male
309,5317STDY7600560,L_38-_B9,Plate - Sample1,liver 34+38-B9,X5317STDY7600560,19 pcw,male
310,5317STDY7600561,L_38-_B10,Plate - Sample1,liver 34+38-B10,X5317STDY7600561,19 pcw,male
311,5317STDY7600562,L_38-_B11,Plate - Sample1,liver 34+38-B11,X5317STDY7600562,19 pcw,male
312,5317STDY7600563,L_38-_B12,Plate - Sample1,liver 34+38-B12,X5317STDY7600563,19 pcw,male
313,5317STDY7600564,L_38-_C1,Plate - Sample1,liver 34+38-C1,X5317STDY7600564,19 pcw,male
314,5317STDY7600565,L_38-_C2,Plate - Sample1,liver 34+38-C2,X5317STDY7600565,19 pcw,male
315,5317STDY7600566,L_38-_C3,Plate - Sample1,liver 34+38-C3,X5317STDY7600566,19 pcw,male
316,5317STDY7600567,L_38-_C4,Plate - Sample1,liver 34+38-C4,X5317STDY7600567,19 pcw,male
317,5317STDY7600568,L_38-_C5,Plate - Sample1,liver 34+38-C5,X5317STDY7600568,19 pcw,male
318,5317STDY7600569,L_38-_C6,Plate - Sample1,liver 34+38-C6,X5317STDY7600569,19 pcw,male
319,5317STDY7600570,L_38-_C7,Plate - Sample1,liver 34+38-C7,X5317STDY7600570,19 pcw,male
320,5317STDY7600571,L_38-_C8,Plate - Sample1,liver 34+38-C8,X5317STDY7600571,19 pcw,male
321,5317STDY7600572,L_38-_C9,Plate - Sample1,liver 34+38-C9,X5317STDY7600572,19 pcw,male
322,5317STDY7600573,L_38-_C10,Plate - Sample1,liver 34+38-C10,X5317STDY7600573,19 pcw,male
323,5317STDY7600574,L_38-_C11,Plate - Sample1,liver 34+38-C11,X5317STDY7600574,19 pcw,male
324,5317STDY7600575,L_38-_C12,Plate - Sample1,liver 34+38-C12,X5317STDY7600575,19 pcw,male
325,5317STDY7600576,L_38-_D1,Plate - Sample1,liver 34+38-D1,X5317STDY7600576,19 pcw,male
326,5317STDY7600577,L_38-_D2,Plate - Sample1,liver 34+38-D2,X5317STDY7600577,19 pcw,male
327,5317STDY7600578,L_38-_D3,Plate - Sample1,liver 34+38-D3,X5317STDY7600578,19 pcw,male
328,5317STDY7600579,L_38-_D4,Plate - Sample1,liver 34+38-D4,X5317STDY7600579,19 pcw,male
329,5317STDY7600580,L_38-_D5,Plate - Sample1,liver 34+38-D5,X5317STDY7600580,19 pcw,male
330,5317STDY7600581,L_38-_D6,Plate - Sample1,liver 34+38-D6,X5317STDY7600581,19 pcw,male
331,5317STDY7600582,L_38-_D7,Plate - Sample1,liver 34+38-D7,X5317STDY7600582,19 pcw,male
332,5317STDY7600583,L_38-_D8,Plate - Sample1,liver 34+38-D8,X5317STDY7600583,19 pcw,male
333,5317STDY7600584,L_38-_D9,Plate - Sample1,liver 34+38-D9,X5317STDY7600584,19 pcw,male
334,5317STDY7600585,L_38-_D10,Plate - Sample1,liver 34+38-D10,X5317STDY7600585,19 pcw,male
335,5317STDY7600586,L_38-_D11,Plate - Sample1,liver 34+38-D11,X5317STDY7600586,19 pcw,male
336,5317STDY7600587,L_38-_D12,Plate - Sample1,liver 34+38-D12,X5317STDY7600587,19 pcw,male
337,5317STDY7600588,L_38-_E1,Plate - Sample1,liver 34+38-E1,X5317STDY7600588,19 pcw,male
338,5317STDY7600589,L_38-_E2,Plate - Sample1,liver 34+38-E2,X5317STDY7600589,19 pcw,male
339,5317STDY7600590,L_38-_E3,Plate - Sample1,liver 34+38-E3,X5317STDY7600590,19 pcw,male
340,5317STDY7600591,L_38-_E4,Plate - Sample1,liver 34+38-E4,X5317STDY7600591,19 pcw,male
341,5317STDY7600592,L_38-_E5,Plate - Sample1,liver 34+38-E5,X5317STDY7600592,19 pcw,male
342,5317STDY7600593,L_38-_E6,Plate - Sample1,liver 34+38-E6,X5317STDY7600593,19 pcw,male
343,5317STDY7600594,L_38-_E7,Plate - Sample1,liver 34+38-E7,X5317STDY7600594,19 pcw,male
344,5317STDY7600595,L_38-_E8,Plate - Sample1,liver 34+38-E8,X5317STDY7600595,19 pcw,male
345,5317STDY7600596,L_38-_E9,Plate - Sample1,liver 34+38-E9,X5317STDY7600596,19 pcw,male
346,5317STDY7600597,L_38-_E10,Plate - Sample1,liver 34+38-E10,X5317STDY7600597,19 pcw,male
347,5317STDY7600598,L_38-_E11,Plate - Sample1,liver 34+38-E11,X5317STDY7600598,19 pcw,male
348,5317STDY7600599,L_38-_E12,Plate - Sample1,liver 34+38-E12,X5317STDY7600599,19 pcw,male
349,5317STDY7600600,L_38-_F1,Plate - Sample1,liver 34+38-F1,X5317STDY7600600,19 pcw,male
350,5317STDY7600601,L_38-_F2,Plate - Sample1,liver 34+38-F2,X5317STDY7600601,19 pcw,male
351,5317STDY7600602,L_38-_F3,Plate - Sample1,liver 34+38-F3,X5317STDY7600602,19 pcw,male
352,5317STDY7600603,L_38-_F4,Plate - Sample1,liver 34+38-F4,X5317STDY7600603,19 pcw,male
353,5317STDY7600604,L_38-_F5,Plate - Sample1,liver 34+38-F5,X5317STDY7600604,19 pcw,male
354,5317STDY7600605,L_38-_F6,Plate - Sample1,liver 34+38-F6,X5317STDY7600605,19 pcw,male
355,5317STDY7600606,L_38-_F7,Plate - Sample1,liver 34+38-F7,X5317STDY7600606,19 pcw,male
356,5317STDY7600607,L_38-_F8,Plate - Sample1,liver 34+38-F8,X5317STDY7600607,19 pcw,male
357,5317STDY7600608,L_38-_F9,Plate - Sample1,liver 34+38-F9,X5317STDY7600608,19 pcw,male
358,5317STDY7600609,L_38-_F10,Plate - Sample1,liver 34+38-F10,X5317STDY7600609,19 pcw,male
359,5317STDY7600610,L_38-_F11,Plate - Sample1,liver 34+38-F11,X5317STDY7600610,19 pcw,male
360,5317STDY7600611,L_38-_F12,Plate - Sample1,liver 34+38-F12,X5317STDY7600611,19 pcw,male
361,5317STDY7600612,L_38-_G1,Plate - Sample1,liver 34+38-G1,X5317STDY7600612,19 pcw,male
362,5317STDY7600613,L_38-_G2,Plate - Sample1,liver 34+38-G2,X5317STDY7600613,19 pcw,male
363,5317STDY7600614,L_38-_G3,Plate - Sample1,liver 34+38-G3,X5317STDY7600614,19 pcw,male
364,5317STDY7600615,L_38-_G4,Plate - Sample1,liver 34+38-G4,X5317STDY7600615,19 pcw,male
365,5317STDY7600616,L_38-_G5,Plate - Sample1,liver 34+38-G5,X5317STDY7600616,19 pcw,male
366,5317STDY7600617,L_38-_G6,Plate - Sample1,liver 34+38-G6,X5317STDY7600617,19 pcw,male
367,5317STDY7600618,L_38-_G7,Plate - Sample1,liver 34+38-G7,X5317STDY7600618,19 pcw,male
368,5317STDY7600619,L_38-_G8,Plate - Sample1,liver 34+38-G8,X5317STDY7600619,19 pcw,male
369,5317STDY7600620,L_38-_G9,Plate - Sample1,liver 34+38-G9,X5317STDY7600620,19 pcw,male
370,5317STDY7600621,L_38-_G10,Plate - Sample1,liver 34+38-G10,X5317STDY7600621,19 pcw,male
371,5317STDY7600622,L_38-_G11,Plate - Sample1,liver 34+38-G11,X5317STDY7600622,19 pcw,male
372,5317STDY7600623,L_38-_G12,Plate - Sample1,liver 34+38-G12,X5317STDY7600623,19 pcw,male
373,5317STDY7600624,L_38-_H1,Plate - Sample1,liver 34+38-H1,X5317STDY7600624,19 pcw,male
374,5317STDY7600625,L_38-_H2,Plate - Sample1,liver 34+38-H2,X5317STDY7600625,19 pcw,male
375,5317STDY7600626,L_38-_H3,Plate - Sample1,liver 34+38-H3,X5317STDY7600626,19 pcw,male
376,5317STDY7600627,L_38-_H4,Plate - Sample1,liver 34+38-H4,X5317STDY7600627,19 pcw,male
377,5317STDY7600628,L_38-_H5,Plate - Sample1,liver 34+38-H5,X5317STDY7600628,19 pcw,male
378,5317STDY7600629,L_38-_H6,Plate - Sample1,liver 34+38-H6,X5317STDY7600629,19 pcw,male
379,5317STDY7600630,L_38-_H7,Plate - Sample1,liver 34+38-H7,X5317STDY7600630,19 pcw,male
380,5317STDY7600631,L_38-_H8,Plate - Sample1,liver 34+38-H8,X5317STDY7600631,19 pcw,male
381,5317STDY7600632,L_38-_H9,Plate - Sample1,liver 34+38-H9,X5317STDY7600632,19 pcw,male
382,5317STDY7600633,L_38-_H10,Plate - Sample1,liver 34+38-H10,X5317STDY7600633,19 pcw,male
383,5317STDY7600634,L_38-_H11,Plate - Sample1,liver 34+38-H11,X5317STDY7600634,19 pcw,male
384,5317STDY7600635,L_38-_H12,Plate - Sample1,liver 34+38-H12,X5317STDY7600635,19 pcw,male
385,5317STDY7600636,H_38-_A1,Plate - Sample1,hip 34+38-A1,X5317STDY7600636,19 pcw,male
386,5317STDY7600637,H_38-_A2,Plate - Sample1,hip 34+38-A2,X5317STDY7600637,19 pcw,male
387,5317STDY7600638,H_38-_A3,Plate - Sample1,hip 34+38-A3,X5317STDY7600638,19 pcw,male
388,5317STDY7600639,H_38-_A4,Plate - Sample1,hip 34+38-A4,X5317STDY7600639,19 pcw,male
389,5317STDY7600640,H_38-_A5,Plate - Sample1,hip 34+38-A5,X5317STDY7600640,19 pcw,male
390,5317STDY7600641,H_38-_A6,Plate - Sample1,hip 34+38-A6,X5317STDY7600641,19 pcw,male
391,5317STDY7600642,H_38-_A7,Plate - Sample1,hip 34+38-A7,X5317STDY7600642,19 pcw,male
392,5317STDY7600643,H_38-_A8,Plate - Sample1,hip 34+38-A8,X5317STDY7600643,19 pcw,male
393,5317STDY7600644,H_38-_A9,Plate - Sample1,hip 34+38-A9,X5317STDY7600644,19 pcw,male
394,5317STDY7600645,H_38-_A10,Plate - Sample1,hip 34+38-A10,X5317STDY7600645,19 pcw,male
395,5317STDY7600646,H_38-_A11,Plate - Sample1,hip 34+38-A11,X5317STDY7600646,19 pcw,male
396,5317STDY7600647,H_38-_A12,Plate - Sample1,hip 34+38-A12,X5317STDY7600647,19 pcw,male
397,5317STDY7600648,H_38-_B1,Plate - Sample1,hip 34+38-B1,X5317STDY7600648,19 pcw,male
398,5317STDY7600649,H_38-_B2,Plate - Sample1,hip 34+38-B2,X5317STDY7600649,19 pcw,male
399,5317STDY7600650,H_38-_B3,Plate - Sample1,hip 34+38-B3,X5317STDY7600650,19 pcw,male
400,5317STDY7600651,H_38-_B4,Plate - Sample1,hip 34+38-B4,X5317STDY7600651,19 pcw,male
401,5317STDY7600652,H_38-_B5,Plate - Sample1,hip 34+38-B5,X5317STDY7600652,19 pcw,male
402,5317STDY7600653,H_38-_B6,Plate - Sample1,hip 34+38-B6,X5317STDY7600653,19 pcw,male
403,5317STDY7600654,H_38-_B7,Plate - Sample1,hip 34+38-B7,X5317STDY7600654,19 pcw,male
404,5317STDY7600655,H_38-_B8,Plate - Sample1,hip 34+38-B8,X5317STDY7600655,19 pcw,male
405,5317STDY7600656,H_38-_B9,Plate - Sample1,hip 34+38-B9,X5317STDY7600656,19 pcw,male
406,5317STDY7600657,H_38-_B10,Plate - Sample1,hip 34+38-B10,X5317STDY7600657,19 pcw,male
407,5317STDY7600658,H_38-_B11,Plate - Sample1,hip 34+38-B11,X5317STDY7600658,19 pcw,male
408,5317STDY7600659,H_38-_B12,Plate - Sample1,hip 34+38-B12,X5317STDY7600659,19 pcw,male
409,5317STDY7600660,H_38-_C1,Plate - Sample1,hip 34+38-C1,X5317STDY7600660,19 pcw,male
410,5317STDY7600661,H_38-_C2,Plate - Sample1,hip 34+38-C2,X5317STDY7600661,19 pcw,male
411,5317STDY7600662,H_38-_C3,Plate - Sample1,hip 34+38-C3,X5317STDY7600662,19 pcw,male
412,5317STDY7600663,H_38-_C4,Plate - Sample1,hip 34+38-C4,X5317STDY7600663,19 pcw,male
413,5317STDY7600664,H_38-_C5,Plate - Sample1,hip 34+38-C5,X5317STDY7600664,19 pcw,male
414,5317STDY7600665,H_38-_C6,Plate - Sample1,hip 34+38-C6,X5317STDY7600665,19 pcw,male
415,5317STDY7600666,H_38-_C7,Plate - Sample1,hip 34+38-C7,X5317STDY7600666,19 pcw,male
416,5317STDY7600667,H_38-_C8,Plate - Sample1,hip 34+38-C8,X5317STDY7600667,19 pcw,male
417,5317STDY7600668,H_38-_C9,Plate - Sample1,hip 34+38-C9,X5317STDY7600668,19 pcw,male
418,5317STDY7600669,H_38-_C10,Plate - Sample1,hip 34+38-C10,X5317STDY7600669,19 pcw,male
419,5317STDY7600670,H_38-_C11,Plate - Sample1,hip 34+38-C11,X5317STDY7600670,19 pcw,male
420,5317STDY7600671,H_38-_C12,Plate - Sample1,hip 34+38-C12,X5317STDY7600671,19 pcw,male
421,5317STDY7600672,H_38-_D1,Plate - Sample1,hip 34+38-D1,X5317STDY7600672,19 pcw,male
422,5317STDY7600673,H_38-_D2,Plate - Sample1,hip 34+38-D2,X5317STDY7600673,19 pcw,male
423,5317STDY7600674,H_38-_D3,Plate - Sample1,hip 34+38-D3,X5317STDY7600674,19 pcw,male
424,5317STDY7600675,H_38-_D4,Plate - Sample1,hip 34+38-D4,X5317STDY7600675,19 pcw,male
425,5317STDY7600676,H_38-_D5,Plate - Sample1,hip 34+38-D5,X5317STDY7600676,19 pcw,male
426,5317STDY7600677,H_38-_D6,Plate - Sample1,hip 34+38-D6,X5317STDY7600677,19 pcw,male
427,5317STDY7600678,H_38-_D7,Plate - Sample1,hip 34+38-D7,X5317STDY7600678,19 pcw,male
428,5317STDY7600679,H_38-_D8,Plate - Sample1,hip 34+38-D8,X5317STDY7600679,19 pcw,male
429,5317STDY7600680,H_38-_D9,Plate - Sample1,hip 34+38-D9,X5317STDY7600680,19 pcw,male
430,5317STDY7600681,H_38-_D10,Plate - Sample1,hip 34+38-D10,X5317STDY7600681,19 pcw,male
431,5317STDY7600682,H_38-_D11,Plate - Sample1,hip 34+38-D11,X5317STDY7600682,19 pcw,male
432,5317STDY7600683,H_38-_D12,Plate - Sample1,hip 34+38-D12,X5317STDY7600683,19 pcw,male
433,5317STDY7600684,H_38-_E1,Plate - Sample1,hip 34+38-E1,X5317STDY7600684,19 pcw,male
434,5317STDY7600685,H_38-_E2,Plate - Sample1,hip 34+38-E2,X5317STDY7600685,19 pcw,male
435,5317STDY7600686,H_38-_E3,Plate - Sample1,hip 34+38-E3,X5317STDY7600686,19 pcw,male
436,5317STDY7600687,H_38-_E4,Plate - Sample1,hip 34+38-E4,X5317STDY7600687,19 pcw,male
437,5317STDY7600688,H_38-_E5,Plate - Sample1,hip 34+38-E5,X5317STDY7600688,19 pcw,male
438,5317STDY7600689,H_38-_E6,Plate - Sample1,hip 34+38-E6,X5317STDY7600689,19 pcw,male
439,5317STDY7600690,H_38-_E7,Plate - Sample1,hip 34+38-E7,X5317STDY7600690,19 pcw,male
440,5317STDY7600691,H_38-_E8,Plate - Sample1,hip 34+38-E8,X5317STDY7600691,19 pcw,male
441,5317STDY7600692,H_38-_E9,Plate - Sample1,hip 34+38-E9,X5317STDY7600692,19 pcw,male
442,5317STDY7600693,H_38-_E10,Plate - Sample1,hip 34+38-E10,X5317STDY7600693,19 pcw,male
443,5317STDY7600694,H_38-_E11,Plate - Sample1,hip 34+38-E11,X5317STDY7600694,19 pcw,male
444,5317STDY7600695,H_38-_E12,Plate - Sample1,hip 34+38-E12,X5317STDY7600695,19 pcw,male
445,5317STDY7600696,H_38-_F1,Plate - Sample1,hip 34+38-F1,X5317STDY7600696,19 pcw,male
446,5317STDY7600697,H_38-_F2,Plate - Sample1,hip 34+38-F2,X5317STDY7600697,19 pcw,male
447,5317STDY7600698,H_38-_F3,Plate - Sample1,hip 34+38-F3,X5317STDY7600698,19 pcw,male
448,5317STDY7600699,H_38-_F4,Plate - Sample1,hip 34+38-F4,X5317STDY7600699,19 pcw,male
449,5317STDY7600700,H_38-_F5,Plate - Sample1,hip 34+38-F5,X5317STDY7600700,19 pcw,male
450,5317STDY7600701,H_38-_F6,Plate - Sample1,hip 34+38-F6,X5317STDY7600701,19 pcw,male
451,5317STDY7600702,H_38-_F7,Plate - Sample1,hip 34+38-F7,X5317STDY7600702,19 pcw,male
452,5317STDY7600703,H_38-_F8,Plate - Sample1,hip 34+38-F8,X5317STDY7600703,19 pcw,male
453,5317STDY7600704,H_38-_F9,Plate - Sample1,hip 34+38-F9,X5317STDY7600704,19 pcw,male
454,5317STDY7600705,H_38-_F10,Plate - Sample1,hip 34+38-F10,X5317STDY7600705,19 pcw,male
455,5317STDY7600706,H_38-_F11,Plate - Sample1,hip 34+38-F11,X5317STDY7600706,19 pcw,male
456,5317STDY7600707,H_38-_F12,Plate - Sample1,hip 34+38-F12,X5317STDY7600707,19 pcw,male
457,5317STDY7600708,H_38-_G1,Plate - Sample1,hip 34+38-G1,X5317STDY7600708,19 pcw,male
458,5317STDY7600709,H_38-_G2,Plate - Sample1,hip 34+38-G2,X5317STDY7600709,19 pcw,male
459,5317STDY7600710,H_38-_G3,Plate - Sample1,hip 34+38-G3,X5317STDY7600710,19 pcw,male
460,5317STDY7600711,H_38-_G4,Plate - Sample1,hip 34+38-G4,X5317STDY7600711,19 pcw,male
461,5317STDY7600712,H_38-_G5,Plate - Sample1,hip 34+38-G5,X5317STDY7600712,19 pcw,male
462,5317STDY7600713,H_38-_G6,Plate - Sample1,hip 34+38-G6,X5317STDY7600713,19 pcw,male
463,5317STDY7600714,H_38-_G7,Plate - Sample1,hip 34+38-G7,X5317STDY7600714,19 pcw,male
464,5317STDY7600715,H_38-_G8,Plate - Sample1,hip 34+38-G8,X5317STDY7600715,19 pcw,male
465,5317STDY7600716,H_38-_G9,Plate - Sample1,hip 34+38-G9,X5317STDY7600716,19 pcw,male
466,5317STDY7600717,H_38-_G10,Plate - Sample1,hip 34+38-G10,X5317STDY7600717,19 pcw,male
467,5317STDY7600718,H_38-_G11,Plate - Sample1,hip 34+38-G11,X5317STDY7600718,19 pcw,male
468,5317STDY7600719,H_38-_G12,Plate - Sample1,hip 34+38-G12,X5317STDY7600719,19 pcw,male
469,5317STDY7600720,H_38-_H1,Plate - Sample1,hip 34+38-H1,X5317STDY7600720,19 pcw,male
470,5317STDY7600721,H_38-_H2,Plate - Sample1,hip 34+38-H2,X5317STDY7600721,19 pcw,male
471,5317STDY7600722,H_38-_H3,Plate - Sample1,hip 34+38-H3,X5317STDY7600722,19 pcw,male
472,5317STDY7600723,H_38-_H4,Plate - Sample1,hip 34+38-H4,X5317STDY7600723,19 pcw,male
473,5317STDY7600724,H_38-_H5,Plate - Sample1,hip 34+38-H5,X5317STDY7600724,19 pcw,male
474,5317STDY7600725,H_38-_H6,Plate - Sample1,hip 34+38-H6,X5317STDY7600725,19 pcw,male
475,5317STDY7600726,H_38-_H7,Plate - Sample1,hip 34+38-H7,X5317STDY7600726,19 pcw,male
476,5317STDY7600727,H_38-_H8,Plate - Sample1,hip 34+38-H8,X5317STDY7600727,19 pcw,male
477,5317STDY7600728,H_38-_H9,Plate - Sample1,hip 34+38-H9,X5317STDY7600728,19 pcw,male
478,5317STDY7600729,H_38-_H10,Plate - Sample1,hip 34+38-H10,X5317STDY7600729,19 pcw,male
479,5317STDY7600730,H_38-_H11,Plate - Sample1,hip 34+38-H11,X5317STDY7600730,19 pcw,male
480,5317STDY7600731,H_38-_H12,Plate - Sample1,hip 34+38-H12,X5317STDY7600731,19 pcw,male
481,5317STDY7600732,F_38-_A1,Plate - Sample1,femur 34+38-A1,X5317STDY7600732,19 pcw,male
482,5317STDY7600733,F_38-_A2,Plate - Sample1,femur 34+38-A2,X5317STDY7600733,19 pcw,male
483,5317STDY7600734,F_38-_A3,Plate - Sample1,femur 34+38-A3,X5317STDY7600734,19 pcw,male
484,5317STDY7600735,F_38-_A4,Plate - Sample1,femur 34+38-A4,X5317STDY7600735,19 pcw,male
485,5317STDY7600736,F_38-_A5,Plate - Sample1,femur 34+38-A5,X5317STDY7600736,19 pcw,male
486,5317STDY7600737,F_38-_A6,Plate - Sample1,femur 34+38-A6,X5317STDY7600737,19 pcw,male
487,5317STDY7600738,F_38-_A7,Plate - Sample1,femur 34+38-A7,X5317STDY7600738,19 pcw,male
488,5317STDY7600739,F_38-_A8,Plate - Sample1,femur 34+38-A8,X5317STDY7600739,19 pcw,male
489,5317STDY7600740,F_38-_A9,Plate - Sample1,femur 34+38-A9,X5317STDY7600740,19 pcw,male
490,5317STDY7600741,F_38-_A10,Plate - Sample1,femur 34+38-A10,X5317STDY7600741,19 pcw,male
491,5317STDY7600742,F_38-_A11,Plate - Sample1,femur 34+38-A11,X5317STDY7600742,19 pcw,male
492,5317STDY7600743,F_38-_A12,Plate - Sample1,femur 34+38-A12,X5317STDY7600743,19 pcw,male
493,5317STDY7600744,F_38-_B1,Plate - Sample1,femur 34+38-B1,X5317STDY7600744,19 pcw,male
494,5317STDY7600745,F_38-_B2,Plate - Sample1,femur 34+38-B2,X5317STDY7600745,19 pcw,male
495,5317STDY7600746,F_38-_B3,Plate - Sample1,femur 34+38-B3,X5317STDY7600746,19 pcw,male
496,5317STDY7600747,F_38-_B4,Plate - Sample1,femur 34+38-B4,X5317STDY7600747,19 pcw,male
497,5317STDY7600748,F_38-_B5,Plate - Sample1,femur 34+38-B5,X5317STDY7600748,19 pcw,male
498,5317STDY7600749,F_38-_B6,Plate - Sample1,femur 34+38-B6,X5317STDY7600749,19 pcw,male
499,5317STDY7600750,F_38-_B7,Plate - Sample1,femur 34+38-B7,X5317STDY7600750,19 pcw,male
500,5317STDY7600751,F_38-_B8,Plate - Sample1,femur 34+38-B8,X5317STDY7600751,19 pcw,male
501,5317STDY7600752,F_38-_B9,Plate - Sample1,femur 34+38-B9,X5317STDY7600752,19 pcw,male
502,5317STDY7600753,F_38-_B10,Plate - Sample1,femur 34+38-B10,X5317STDY7600753,19 pcw,male
503,5317STDY7600754,F_38-_B11,Plate - Sample1,femur 34+38-B11,X5317STDY7600754,19 pcw,male
504,5317STDY7600755,F_38-_B12,Plate - Sample1,femur 34+38-B12,X5317STDY7600755,19 pcw,male
505,5317STDY7600756,F_38-_C1,Plate - Sample1,femur 34+38-C1,X5317STDY7600756,19 pcw,male
506,5317STDY7600757,F_38-_C2,Plate - Sample1,femur 34+38-C2,X5317STDY7600757,19 pcw,male
507,5317STDY7600758,F_38-_C3,Plate - Sample1,femur 34+38-C3,X5317STDY7600758,19 pcw,male
508,5317STDY7600759,F_38-_C4,Plate - Sample1,femur 34+38-C4,X5317STDY7600759,19 pcw,male
509,5317STDY7600760,F_38-_C5,Plate - Sample1,femur 34+38-C5,X5317STDY7600760,19 pcw,male
510,5317STDY7600761,F_38-_C6,Plate - Sample1,femur 34+38-C6,X5317STDY7600761,19 pcw,male
511,5317STDY7600762,F_38-_C7,Plate - Sample1,femur 34+38-C7,X5317STDY7600762,19 pcw,male
512,5317STDY7600763,F_38-_C8,Plate - Sample1,femur 34+38-C8,X5317STDY7600763,19 pcw,male
513,5317STDY7600764,F_38-_C9,Plate - Sample1,femur 34+38-C9,X5317STDY7600764,19 pcw,male
514,5317STDY7600765,F_38-_C10,Plate - Sample1,femur 34+38-C10,X5317STDY7600765,19 pcw,male
515,5317STDY7600766,F_38-_C11,Plate - Sample1,femur 34+38-C11,X5317STDY7600766,19 pcw,male
516,5317STDY7600767,F_38-_C12,Plate - Sample1,femur 34+38-C12,X5317STDY7600767,19 pcw,male
517,5317STDY7600768,F_38-_D1,Plate - Sample1,femur 34+38-D1,X5317STDY7600768,19 pcw,male
518,5317STDY7600769,F_38-_D2,Plate - Sample1,femur 34+38-D2,X5317STDY7600769,19 pcw,male
519,5317STDY7600770,F_38-_D3,Plate - Sample1,femur 34+38-D3,X5317STDY7600770,19 pcw,male
520,5317STDY7600771,F_38-_D4,Plate - Sample1,femur 34+38-D4,X5317STDY7600771,19 pcw,male
521,5317STDY7600772,F_38-_D5,Plate - Sample1,femur 34+38-D5,X5317STDY7600772,19 pcw,male
522,5317STDY7600773,F_38-_D6,Plate - Sample1,femur 34+38-D6,X5317STDY7600773,19 pcw,male
523,5317STDY7600774,F_38-_D7,Plate - Sample1,femur 34+38-D7,X5317STDY7600774,19 pcw,male
524,5317STDY7600775,F_38-_D8,Plate - Sample1,femur 34+38-D8,X5317STDY7600775,19 pcw,male
525,5317STDY7600776,F_38-_D9,Plate - Sample1,femur 34+38-D9,X5317STDY7600776,19 pcw,male
526,5317STDY7600777,F_38-_D10,Plate - Sample1,femur 34+38-D10,X5317STDY7600777,19 pcw,male
527,5317STDY7600778,F_38-_D11,Plate - Sample1,femur 34+38-D11,X5317STDY7600778,19 pcw,male
528,5317STDY7600779,F_38-_D12,Plate - Sample1,femur 34+38-D12,X5317STDY7600779,19 pcw,male
529,5317STDY7600780,F_38-_E1,Plate - Sample1,femur 34+38-E1,X5317STDY7600780,19 pcw,male
530,5317STDY7600781,F_38-_E2,Plate - Sample1,femur 34+38-E2,X5317STDY7600781,19 pcw,male
531,5317STDY7600782,F_38-_E3,Plate - Sample1,femur 34+38-E3,X5317STDY7600782,19 pcw,male
532,5317STDY7600783,F_38-_E4,Plate - Sample1,femur 34+38-E4,X5317STDY7600783,19 pcw,male
533,5317STDY7600784,F_38-_E5,Plate - Sample1,femur 34+38-E5,X5317STDY7600784,19 pcw,male
534,5317STDY7600785,F_38-_E6,Plate - Sample1,femur 34+38-E6,X5317STDY7600785,19 pcw,male
535,5317STDY7600786,F_38-_E7,Plate - Sample1,femur 34+38-E7,X5317STDY7600786,19 pcw,male
536,5317STDY7600787,F_38-_E8,Plate - Sample1,femur 34+38-E8,X5317STDY7600787,19 pcw,male
537,5317STDY7600788,F_38-_E9,Plate - Sample1,femur 34+38-E9,X5317STDY7600788,19 pcw,male
538,5317STDY7600789,F_38-_E10,Plate - Sample1,femur 34+38-E10,X5317STDY7600789,19 pcw,male
539,5317STDY7600790,F_38-_E11,Plate - Sample1,femur 34+38-E11,X5317STDY7600790,19 pcw,male
540,5317STDY7600791,F_38-_E12,Plate - Sample1,femur 34+38-E12,X5317STDY7600791,19 pcw,male
541,5317STDY7600792,F_38-_F1,Plate - Sample1,femur 34+38-F1,X5317STDY7600792,19 pcw,male
542,5317STDY7600793,F_38-_F2,Plate - Sample1,femur 34+38-F2,X5317STDY7600793,19 pcw,male
543,5317STDY7600794,F_38-_F3,Plate - Sample1,femur 34+38-F3,X5317STDY7600794,19 pcw,male
544,5317STDY7600795,F_38-_F4,Plate - Sample1,femur 34+38-F4,X5317STDY7600795,19 pcw,male
545,5317STDY7600796,F_38-_F5,Plate - Sample1,femur 34+38-F5,X5317STDY7600796,19 pcw,male
546,5317STDY7600797,F_38-_F6,Plate - Sample1,femur 34+38-F6,X5317STDY7600797,19 pcw,male
547,5317STDY7600798,F_38-_F7,Plate - Sample1,femur 34+38-F7,X5317STDY7600798,19 pcw,male
548,5317STDY7600799,F_38-_F8,Plate - Sample1,femur 34+38-F8,X5317STDY7600799,19 pcw,male
549,5317STDY7600800,F_38-_F9,Plate - Sample1,femur 34+38-F9,X5317STDY7600800,19 pcw,male
550,5317STDY7600801,F_38-_F10,Plate - Sample1,femur 34+38-F10,X5317STDY7600801,19 pcw,male
551,5317STDY7600802,F_38-_F11,Plate - Sample1,femur 34+38-F11,X5317STDY7600802,19 pcw,male
552,5317STDY7600803,F_38-_F12,Plate - Sample1,femur 34+38-F12,X5317STDY7600803,19 pcw,male
553,5317STDY7600804,F_38-_G1,Plate - Sample1,femur 34+38-G1,X5317STDY7600804,19 pcw,male
554,5317STDY7600805,F_38-_G2,Plate - Sample1,femur 34+38-G2,X5317STDY7600805,19 pcw,male
555,5317STDY7600806,F_38-_G3,Plate - Sample1,femur 34+38-G3,X5317STDY7600806,19 pcw,male
556,5317STDY7600807,F_38-_G4,Plate - Sample1,femur 34+38-G4,X5317STDY7600807,19 pcw,male
557,5317STDY7600808,F_38-_G5,Plate - Sample1,femur 34+38-G5,X5317STDY7600808,19 pcw,male
558,5317STDY7600809,F_38-_G6,Plate - Sample1,femur 34+38-G6,X5317STDY7600809,19 pcw,male
559,5317STDY7600810,F_38-_G7,Plate - Sample1,femur 34+38-G7,X5317STDY7600810,19 pcw,male
560,5317STDY7600811,F_38-_G8,Plate - Sample1,femur 34+38-G8,X5317STDY7600811,19 pcw,male
561,5317STDY7600812,F_38-_G9,Plate - Sample1,femur 34+38-G9,X5317STDY7600812,19 pcw,male
562,5317STDY7600813,F_38-_G10,Plate - Sample1,femur 34+38-G10,X5317STDY7600813,19 pcw,male
563,5317STDY7600814,F_38-_G11,Plate - Sample1,femur 34+38-G11,X5317STDY7600814,19 pcw,male
564,5317STDY7600815,F_38-_G12,Plate - Sample1,femur 34+38-G12,X5317STDY7600815,19 pcw,male
565,5317STDY7600816,F_38-_H1,Plate - Sample1,femur 34+38-H1,X5317STDY7600816,19 pcw,male
566,5317STDY7600817,F_38-_H2,Plate - Sample1,femur 34+38-H2,X5317STDY7600817,19 pcw,male
567,5317STDY7600818,F_38-_H3,Plate - Sample1,femur 34+38-H3,X5317STDY7600818,19 pcw,male
568,5317STDY7600819,F_38-_H4,Plate - Sample1,femur 34+38-H4,X5317STDY7600819,19 pcw,male
569,5317STDY7600820,F_38-_H5,Plate - Sample1,femur 34+38-H5,X5317STDY7600820,19 pcw,male
570,5317STDY7600821,F_38-_H6,Plate - Sample1,femur 34+38-H6,X5317STDY7600821,19 pcw,male
571,5317STDY7600822,F_38-_H7,Plate - Sample1,femur 34+38-H7,X5317STDY7600822,19 pcw,male
572,5317STDY7600823,F_38-_H8,Plate - Sample1,femur 34+38-H8,X5317STDY7600823,19 pcw,male
573,5317STDY7600824,F_38-_H9,Plate - Sample1,femur 34+38-H9,X5317STDY7600824,19 pcw,male
574,5317STDY7600825,F_38-_H10,Plate - Sample1,femur 34+38-H10,X5317STDY7600825,19 pcw,male
575,5317STDY7600826,F_38-_H11,Plate - Sample1,femur 34+38-H11,X5317STDY7600826,19 pcw,male
576,5317STDY7600827,F_38-_H12,Plate - Sample1,femur 34+38-H12,X5317STDY7600827,19 pcw,male